i281_cpu.vcd
$date
	Thu Nov 20 23:55:30 2025
$end
$version
	ModelSim Version 10.5b
$end
$timescale
	1ps
$end

$scope module i281_cpu_tb $end
$var parameter 32 ! CLK_PERIOD $end
$var reg 1 " clk $end
$var reg 1 # reset $end
$var reg 16 $ Switches [15:0] $end

$scope module DUT $end
$var wire 1 % Clock $end
$var wire 1 & Reset $end
$var wire 1 ' Switches [15] $end
$var wire 1 ( Switches [14] $end
$var wire 1 ) Switches [13] $end
$var wire 1 * Switches [12] $end
$var wire 1 + Switches [11] $end
$var wire 1 , Switches [10] $end
$var wire 1 - Switches [9] $end
$var wire 1 . Switches [8] $end
$var wire 1 / Switches [7] $end
$var wire 1 0 Switches [6] $end
$var wire 1 1 Switches [5] $end
$var wire 1 2 Switches [4] $end
$var wire 1 3 Switches [3] $end
$var wire 1 4 Switches [2] $end
$var wire 1 5 Switches [1] $end
$var wire 1 6 Switches [0] $end
$var wire 1 7 pc_out_cm_addr [5] $end
$var wire 1 8 pc_out_cm_addr [4] $end
$var wire 1 9 pc_out_cm_addr [3] $end
$var wire 1 : pc_out_cm_addr [2] $end
$var wire 1 ; pc_out_cm_addr [1] $end
$var wire 1 < pc_out_cm_addr [0] $end
$var wire 1 = instr_out [15] $end
$var wire 1 > instr_out [14] $end
$var wire 1 ? instr_out [13] $end
$var wire 1 @ instr_out [12] $end
$var wire 1 A instr_out [11] $end
$var wire 1 B instr_out [10] $end
$var wire 1 C instr_out [9] $end
$var wire 1 D instr_out [8] $end
$var wire 1 E instr_out [7] $end
$var wire 1 F instr_out [6] $end
$var wire 1 G instr_out [5] $end
$var wire 1 H instr_out [4] $end
$var wire 1 I instr_out [3] $end
$var wire 1 J instr_out [2] $end
$var wire 1 K instr_out [1] $end
$var wire 1 L instr_out [0] $end
$var wire 1 M c1_imem_write_enable $end
$var wire 1 N cm_write_select [5] $end
$var wire 1 O cm_write_select [4] $end
$var wire 1 P cm_write_select [3] $end
$var wire 1 Q cm_write_select [2] $end
$var wire 1 R cm_write_select [1] $end
$var wire 1 S cm_write_select [0] $end
$var wire 1 T OpCode_Field [7] $end
$var wire 1 U OpCode_Field [6] $end
$var wire 1 V OpCode_Field [5] $end
$var wire 1 W OpCode_Field [4] $end
$var wire 1 X OpCode_Field [3] $end
$var wire 1 Y OpCode_Field [2] $end
$var wire 1 Z OpCode_Field [1] $end
$var wire 1 [ OpCode_Field [0] $end
$var wire 1 \ OP_NOOP $end
$var wire 1 ] OP_INPUTC $end
$var wire 1 ^ OP_INPUTCF $end
$var wire 1 _ OP_INPUTD $end
$var wire 1 ` OP_INPUTDF $end
$var wire 1 a OP_MOVE $end
$var wire 1 b OP_LOADI_LOADP $end
$var wire 1 c OP_ADD $end
$var wire 1 d OP_ADDI $end
$var wire 1 e OP_SUB $end
$var wire 1 f OP_SUBI $end
$var wire 1 g OP_LOAD $end
$var wire 1 h OP_LOADF $end
$var wire 1 i OP_STORE $end
$var wire 1 j OP_STOREF $end
$var wire 1 k OP_SHIFTL $end
$var wire 1 l OP_SHIFTR $end
$var wire 1 m OP_CMP $end
$var wire 1 n OP_JUMP $end
$var wire 1 o OP_BRE_BRZ $end
$var wire 1 p OP_BRNE_BRNZ $end
$var wire 1 q OP_BRG $end
$var wire 1 r OP_BRGE $end
$var wire 1 s X1 $end
$var wire 1 t X0 $end
$var wire 1 u Y1 $end
$var wire 1 v Y0 $end
$var wire 1 w c2_program_counter_mux $end
$var wire 1 x c3_program_counter_write_en $end
$var wire 1 y c4_registers_port0_select1 $end
$var wire 1 z c5_registers_port0_select0 $end
$var wire 1 { c6_registers_port1_select1 $end
$var wire 1 | c7_registers_port1_select0 $end
$var wire 1 } c8_registers_write_select1 $end
$var wire 1 ~ c9_registers_write_select0 $end
$var wire 1 !! c10_registers_write_enable $end
$var wire 1 "! c11_alu_source_mux $end
$var wire 1 #! c12_alu_select1 $end
$var wire 1 $! c13_alu_select0 $end
$var wire 1 %! c14_flags_write_enable $end
$var wire 1 &! c15_alu_result_mux $end
$var wire 1 '! c16_dmem_input_mux $end
$var wire 1 (! c17_dmem_write_enable $end
$var wire 1 )! c18_reg_writeback_mux $end
$var wire 1 *! next_pc_address [5] $end
$var wire 1 +! next_pc_address [4] $end
$var wire 1 ,! next_pc_address [3] $end
$var wire 1 -! next_pc_address [2] $end
$var wire 1 .! next_pc_address [1] $end
$var wire 1 /! next_pc_address [0] $end
$var wire 1 0! offset_in [5] $end
$var wire 1 1! offset_in [4] $end
$var wire 1 2! offset_in [3] $end
$var wire 1 3! offset_in [2] $end
$var wire 1 4! offset_in [1] $end
$var wire 1 5! offset_in [0] $end
$var wire 1 6! port0_data [7] $end
$var wire 1 7! port0_data [6] $end
$var wire 1 8! port0_data [5] $end
$var wire 1 9! port0_data [4] $end
$var wire 1 :! port0_data [3] $end
$var wire 1 ;! port0_data [2] $end
$var wire 1 <! port0_data [1] $end
$var wire 1 =! port0_data [0] $end
$var wire 1 >! port1_data [7] $end
$var wire 1 ?! port1_data [6] $end
$var wire 1 @! port1_data [5] $end
$var wire 1 A! port1_data [4] $end
$var wire 1 B! port1_data [3] $end
$var wire 1 C! port1_data [2] $end
$var wire 1 D! port1_data [1] $end
$var wire 1 E! port1_data [0] $end
$var wire 1 F! reg_writeback_data [7] $end
$var wire 1 G! reg_writeback_data [6] $end
$var wire 1 H! reg_writeback_data [5] $end
$var wire 1 I! reg_writeback_data [4] $end
$var wire 1 J! reg_writeback_data [3] $end
$var wire 1 K! reg_writeback_data [2] $end
$var wire 1 L! reg_writeback_data [1] $end
$var wire 1 M! reg_writeback_data [0] $end
$var wire 1 N! alu_input_B [7] $end
$var wire 1 O! alu_input_B [6] $end
$var wire 1 P! alu_input_B [5] $end
$var wire 1 Q! alu_input_B [4] $end
$var wire 1 R! alu_input_B [3] $end
$var wire 1 S! alu_input_B [2] $end
$var wire 1 T! alu_input_B [1] $end
$var wire 1 U! alu_input_B [0] $end
$var wire 1 V! alu_result [7] $end
$var wire 1 W! alu_result [6] $end
$var wire 1 X! alu_result [5] $end
$var wire 1 Y! alu_result [4] $end
$var wire 1 Z! alu_result [3] $end
$var wire 1 [! alu_result [2] $end
$var wire 1 \! alu_result [1] $end
$var wire 1 ]! alu_result [0] $end
$var wire 1 ^! flag_negative $end
$var wire 1 _! flag_zero $end
$var wire 1 `! flag_carry $end
$var wire 1 a! flag_overflow $end
$var wire 1 b! out_carry $end
$var wire 1 c! out_overflow $end
$var wire 1 d! out_negative $end
$var wire 1 e! out_zero $end
$var wire 1 f! dmem_data_out [7] $end
$var wire 1 g! dmem_data_out [6] $end
$var wire 1 h! dmem_data_out [5] $end
$var wire 1 i! dmem_data_out [4] $end
$var wire 1 j! dmem_data_out [3] $end
$var wire 1 k! dmem_data_out [2] $end
$var wire 1 l! dmem_data_out [1] $end
$var wire 1 m! dmem_data_out [0] $end
$var wire 1 n! alu_result_mux_out [7] $end
$var wire 1 o! alu_result_mux_out [6] $end
$var wire 1 p! alu_result_mux_out [5] $end
$var wire 1 q! alu_result_mux_out [4] $end
$var wire 1 r! alu_result_mux_out [3] $end
$var wire 1 s! alu_result_mux_out [2] $end
$var wire 1 t! alu_result_mux_out [1] $end
$var wire 1 u! alu_result_mux_out [0] $end
$var wire 1 v! dmem_input_mux_out [7] $end
$var wire 1 w! dmem_input_mux_out [6] $end
$var wire 1 x! dmem_input_mux_out [5] $end
$var wire 1 y! dmem_input_mux_out [4] $end
$var wire 1 z! dmem_input_mux_out [3] $end
$var wire 1 {! dmem_input_mux_out [2] $end
$var wire 1 |! dmem_input_mux_out [1] $end
$var wire 1 }! dmem_input_mux_out [0] $end

$scope module CM $end
$var wire 1 % clk $end
$var wire 1 7 addr_cm [5] $end
$var wire 1 8 addr_cm [4] $end
$var wire 1 9 addr_cm [3] $end
$var wire 1 : addr_cm [2] $end
$var wire 1 ; addr_cm [1] $end
$var wire 1 < addr_cm [0] $end
$var wire 1 M we_cm $end
$var wire 1 ' data_in_cm [15] $end
$var wire 1 ( data_in_cm [14] $end
$var wire 1 ) data_in_cm [13] $end
$var wire 1 * data_in_cm [12] $end
$var wire 1 + data_in_cm [11] $end
$var wire 1 , data_in_cm [10] $end
$var wire 1 - data_in_cm [9] $end
$var wire 1 . data_in_cm [8] $end
$var wire 1 / data_in_cm [7] $end
$var wire 1 0 data_in_cm [6] $end
$var wire 1 1 data_in_cm [5] $end
$var wire 1 2 data_in_cm [4] $end
$var wire 1 3 data_in_cm [3] $end
$var wire 1 4 data_in_cm [2] $end
$var wire 1 5 data_in_cm [1] $end
$var wire 1 6 data_in_cm [0] $end
$var wire 1 N write_sel [5] $end
$var wire 1 O write_sel [4] $end
$var wire 1 P write_sel [3] $end
$var wire 1 Q write_sel [2] $end
$var wire 1 R write_sel [1] $end
$var wire 1 S write_sel [0] $end
$var wire 1 = instr_out [15] $end
$var wire 1 > instr_out [14] $end
$var wire 1 ? instr_out [13] $end
$var wire 1 @ instr_out [12] $end
$var wire 1 A instr_out [11] $end
$var wire 1 B instr_out [10] $end
$var wire 1 C instr_out [9] $end
$var wire 1 D instr_out [8] $end
$var wire 1 E instr_out [7] $end
$var wire 1 F instr_out [6] $end
$var wire 1 G instr_out [5] $end
$var wire 1 H instr_out [4] $end
$var wire 1 I instr_out [3] $end
$var wire 1 J instr_out [2] $end
$var wire 1 K instr_out [1] $end
$var wire 1 L instr_out [0] $end
$upscope $end

$scope module OD $end
$var wire 1 T OpCode_Field [7] $end
$var wire 1 U OpCode_Field [6] $end
$var wire 1 V OpCode_Field [5] $end
$var wire 1 W OpCode_Field [4] $end
$var wire 1 X OpCode_Field [3] $end
$var wire 1 Y OpCode_Field [2] $end
$var wire 1 Z OpCode_Field [1] $end
$var wire 1 [ OpCode_Field [0] $end
$var wire 1 \ OP_NOOP $end
$var wire 1 ] OP_INPUTC $end
$var wire 1 ^ OP_INPUTCF $end
$var wire 1 _ OP_INPUTD $end
$var wire 1 ` OP_INPUTDF $end
$var wire 1 a OP_MOVE $end
$var wire 1 b OP_LOADI_LOADP $end
$var wire 1 c OP_ADD $end
$var wire 1 d OP_ADDI $end
$var wire 1 e OP_SUB $end
$var wire 1 f OP_SUBI $end
$var wire 1 g OP_LOAD $end
$var wire 1 h OP_LOADF $end
$var wire 1 i OP_STORE $end
$var wire 1 j OP_STOREF $end
$var wire 1 k OP_SHIFTL $end
$var wire 1 l OP_SHIFTR $end
$var wire 1 m OP_CMP $end
$var wire 1 n OP_JUMP $end
$var wire 1 o OP_BRE_BRZ $end
$var wire 1 p OP_BRNE_BRNZ $end
$var wire 1 q OP_BRG $end
$var wire 1 r OP_BRGE $end
$var wire 1 s X1 $end
$var wire 1 t X0 $end
$var wire 1 u Y1 $end
$var wire 1 v Y0 $end
$var wire 1 ~! w_main_sel [3] $end
$var wire 1 !" w_main_sel [2] $end
$var wire 1 "" w_main_sel [1] $end
$var wire 1 #" w_main_sel [0] $end
$var reg 16 $" y_main [15:0] $end
$var wire 1 %" w_secondary_sel [1] $end
$var wire 1 &" w_secondary_sel [0] $end
$var wire 1 '" w_shift_sel $end
$var reg 4 (" y_input_group [3:0] $end
$var reg 2 )" y_shift_group [1:0] $end
$var reg 4 *" y_branch_group [3:0] $end
$upscope $end

$scope module CU $end
$var wire 1 \ OP_NOOP $end
$var wire 1 ] OP_INPUTC $end
$var wire 1 ^ OP_INPUTCF $end
$var wire 1 _ OP_INPUTD $end
$var wire 1 ` OP_INPUTDF $end
$var wire 1 a OP_MOVE $end
$var wire 1 b OP_LOADI_LOADP $end
$var wire 1 c OP_ADD $end
$var wire 1 d OP_ADDI $end
$var wire 1 e OP_SUB $end
$var wire 1 f OP_SUBI $end
$var wire 1 g OP_LOAD $end
$var wire 1 h OP_LOADF $end
$var wire 1 i OP_STORE $end
$var wire 1 j OP_STOREF $end
$var wire 1 k OP_SHIFTL $end
$var wire 1 l OP_SHIFTR $end
$var wire 1 m OP_CMP $end
$var wire 1 n OP_JUMP $end
$var wire 1 o OP_BRE_BRZ $end
$var wire 1 p OP_BRNE_BRNZ $end
$var wire 1 q OP_BRG $end
$var wire 1 r OP_BRGE $end
$var wire 1 s X1 $end
$var wire 1 t X0 $end
$var wire 1 u Y1 $end
$var wire 1 v Y0 $end
$var wire 1 e! ZF $end
$var wire 1 d! NF $end
$var wire 1 c! OF $end
$var wire 1 b! CF $end
$var wire 1 M c1_imem_write_enable $end
$var wire 1 w c2_program_counter_mux $end
$var wire 1 x c3_program_counter_write_en $end
$var wire 1 y c4_registers_port0_select1 $end
$var wire 1 z c5_registers_port0_select0 $end
$var wire 1 { c6_registers_port1_select1 $end
$var wire 1 | c7_registers_port1_select0 $end
$var wire 1 } c8_registers_write_select1 $end
$var wire 1 ~ c9_registers_write_select0 $end
$var wire 1 !! c10_registers_write_enable $end
$var wire 1 "! c11_alu_source_mux $end
$var wire 1 #! c12_alu_select1 $end
$var wire 1 $! c13_alu_select0 $end
$var wire 1 %! c14_flags_write_enable $end
$var wire 1 &! c15_alu_result_mux $end
$var wire 1 '! c16_dmem_input_mux $end
$var wire 1 (! c17_dmem_write_enable $end
$var wire 1 )! c18_reg_writeback_mux $end
$var wire 1 +" B1_condition $end
$var wire 1 ," B2_condition $end
$var wire 1 -" B3_condition $end
$var wire 1 ." B4_condition $end
$upscope $end

$scope module PCUL $end
$var wire 1 7 current_pc [5] $end
$var wire 1 8 current_pc [4] $end
$var wire 1 9 current_pc [3] $end
$var wire 1 : current_pc [2] $end
$var wire 1 ; current_pc [1] $end
$var wire 1 < current_pc [0] $end
$var wire 1 0! offset_in [5] $end
$var wire 1 1! offset_in [4] $end
$var wire 1 2! offset_in [3] $end
$var wire 1 3! offset_in [2] $end
$var wire 1 4! offset_in [1] $end
$var wire 1 5! offset_in [0] $end
$var wire 1 w c2_mux_select $end
$var wire 1 *! next_pc_address [5] $end
$var wire 1 +! next_pc_address [4] $end
$var wire 1 ,! next_pc_address [3] $end
$var wire 1 -! next_pc_address [2] $end
$var wire 1 .! next_pc_address [1] $end
$var wire 1 /! next_pc_address [0] $end
$var wire 1 /" pc_plus_1 [5] $end
$var wire 1 0" pc_plus_1 [4] $end
$var wire 1 1" pc_plus_1 [3] $end
$var wire 1 2" pc_plus_1 [2] $end
$var wire 1 3" pc_plus_1 [1] $end
$var wire 1 4" pc_plus_1 [0] $end
$var wire 1 5" pc_plus_1_plus_offset [5] $end
$var wire 1 6" pc_plus_1_plus_offset [4] $end
$var wire 1 7" pc_plus_1_plus_offset [3] $end
$var wire 1 8" pc_plus_1_plus_offset [2] $end
$var wire 1 9" pc_plus_1_plus_offset [1] $end
$var wire 1 :" pc_plus_1_plus_offset [0] $end
$upscope $end

$scope module PC $end
$var wire 1 % clk $end
$var wire 1 & reset $end
$var wire 1 x c3_write_en $end
$var wire 1 *! in_pc [5] $end
$var wire 1 +! in_pc [4] $end
$var wire 1 ,! in_pc [3] $end
$var wire 1 -! in_pc [2] $end
$var wire 1 .! in_pc [1] $end
$var wire 1 /! in_pc [0] $end
$var wire 1 7 pc_out [5] $end
$var wire 1 8 pc_out [4] $end
$var wire 1 9 pc_out [3] $end
$var wire 1 : pc_out [2] $end
$var wire 1 ; pc_out [1] $end
$var wire 1 < pc_out [0] $end
$var reg 6 ;" pc_reg [5:0] $end
$upscope $end

$scope module RF $end
$var wire 1 % clk $end
$var wire 1 & reset $end
$var wire 1 !! c10_write_en $end
$var wire 1 } c8c9_write_sel [1] $end
$var wire 1 ~ c8c9_write_sel [0] $end
$var wire 1 y c4c5_read0_sel [1] $end
$var wire 1 z c4c5_read0_sel [0] $end
$var wire 1 { c6c7_read1_sel [1] $end
$var wire 1 | c6c7_read1_sel [0] $end
$var wire 1 F! data_in [7] $end
$var wire 1 G! data_in [6] $end
$var wire 1 H! data_in [5] $end
$var wire 1 I! data_in [4] $end
$var wire 1 J! data_in [3] $end
$var wire 1 K! data_in [2] $end
$var wire 1 L! data_in [1] $end
$var wire 1 M! data_in [0] $end
$var wire 1 6! port0_data [7] $end
$var wire 1 7! port0_data [6] $end
$var wire 1 8! port0_data [5] $end
$var wire 1 9! port0_data [4] $end
$var wire 1 :! port0_data [3] $end
$var wire 1 ;! port0_data [2] $end
$var wire 1 <! port0_data [1] $end
$var wire 1 =! port0_data [0] $end
$var wire 1 >! port1_data [7] $end
$var wire 1 ?! port1_data [6] $end
$var wire 1 @! port1_data [5] $end
$var wire 1 A! port1_data [4] $end
$var wire 1 B! port1_data [3] $end
$var wire 1 C! port1_data [2] $end
$var wire 1 D! port1_data [1] $end
$var wire 1 E! port1_data [0] $end
$var reg 8 <" reg_A [7:0] $end
$var reg 8 =" reg_B [7:0] $end
$var reg 8 >" reg_C [7:0] $end
$var reg 8 ?" reg_D [7:0] $end
$upscope $end

$scope module ALU $end
$var wire 1 6! data_A [7] $end
$var wire 1 7! data_A [6] $end
$var wire 1 8! data_A [5] $end
$var wire 1 9! data_A [4] $end
$var wire 1 :! data_A [3] $end
$var wire 1 ;! data_A [2] $end
$var wire 1 <! data_A [1] $end
$var wire 1 =! data_A [0] $end
$var wire 1 N! data_B [7] $end
$var wire 1 O! data_B [6] $end
$var wire 1 P! data_B [5] $end
$var wire 1 Q! data_B [4] $end
$var wire 1 R! data_B [3] $end
$var wire 1 S! data_B [2] $end
$var wire 1 T! data_B [1] $end
$var wire 1 U! data_B [0] $end
$var wire 1 #! c12_select1 $end
$var wire 1 $! c13_select0 $end
$var wire 1 V! alu_result [7] $end
$var wire 1 W! alu_result [6] $end
$var wire 1 X! alu_result [5] $end
$var wire 1 Y! alu_result [4] $end
$var wire 1 Z! alu_result [3] $end
$var wire 1 [! alu_result [2] $end
$var wire 1 \! alu_result [1] $end
$var wire 1 ]! alu_result [0] $end
$var wire 1 ^! flag_negative $end
$var wire 1 _! flag_zero $end
$var wire 1 `! flag_carry $end
$var wire 1 a! flag_overflow $end
$var wire 1 @" sum_sub_result [7] $end
$var wire 1 A" sum_sub_result [6] $end
$var wire 1 B" sum_sub_result [5] $end
$var wire 1 C" sum_sub_result [4] $end
$var wire 1 D" sum_sub_result [3] $end
$var wire 1 E" sum_sub_result [2] $end
$var wire 1 F" sum_sub_result [1] $end
$var wire 1 G" sum_sub_result [0] $end
$var wire 1 H" sum_extended [8] $end
$var wire 1 I" sum_extended [7] $end
$var wire 1 J" sum_extended [6] $end
$var wire 1 K" sum_extended [5] $end
$var wire 1 L" sum_extended [4] $end
$var wire 1 M" sum_extended [3] $end
$var wire 1 N" sum_extended [2] $end
$var wire 1 O" sum_extended [1] $end
$var wire 1 P" sum_extended [0] $end
$var wire 1 Q" carry_out $end
$var wire 1 R" overflow_out $end
$var wire 1 S" sign_A $end
$var wire 1 T" sign_B $end
$var wire 1 U" sign_R $end
$var wire 1 V" shift_result [7] $end
$var wire 1 W" shift_result [6] $end
$var wire 1 X" shift_result [5] $end
$var wire 1 Y" shift_result [4] $end
$var wire 1 Z" shift_result [3] $end
$var wire 1 [" shift_result [2] $end
$var wire 1 \" shift_result [1] $end
$var wire 1 ]" shift_result [0] $end
$var wire 1 ^" shift_out $end
$upscope $end

$scope module FR $end
$var wire 1 % clk $end
$var wire 1 & reset $end
$var wire 1 %! c14_write_en $end
$var wire 1 `! in_carry $end
$var wire 1 a! in_overflow $end
$var wire 1 ^! in_negative $end
$var wire 1 _! in_zero $end
$var wire 1 b! out_carry $end
$var wire 1 c! out_overflow $end
$var wire 1 d! out_negative $end
$var wire 1 e! out_zero $end
$var reg 1 _" carry_flag_reg $end
$var reg 1 `" overflow_flag_reg $end
$var reg 1 a" negative_flag_reg $end
$var reg 1 b" zero_flag_reg $end
$upscope $end

$scope module dmem $end
$var wire 1 % Clock $end
$var wire 1 r! ReadSelect [3] $end
$var wire 1 s! ReadSelect [2] $end
$var wire 1 t! ReadSelect [1] $end
$var wire 1 u! ReadSelect [0] $end
$var wire 1 f! DataOut [7] $end
$var wire 1 g! DataOut [6] $end
$var wire 1 h! DataOut [5] $end
$var wire 1 i! DataOut [4] $end
$var wire 1 j! DataOut [3] $end
$var wire 1 k! DataOut [2] $end
$var wire 1 l! DataOut [1] $end
$var wire 1 m! DataOut [0] $end
$var wire 1 (! WriteEn $end
$var wire 1 r! WriteSelect [3] $end
$var wire 1 s! WriteSelect [2] $end
$var wire 1 t! WriteSelect [1] $end
$var wire 1 u! WriteSelect [0] $end
$var wire 1 v! DataIn [7] $end
$var wire 1 w! DataIn [6] $end
$var wire 1 x! DataIn [5] $end
$var wire 1 y! DataIn [4] $end
$var wire 1 z! DataIn [3] $end
$var wire 1 {! DataIn [2] $end
$var wire 1 |! DataIn [1] $end
$var wire 1 }! DataIn [0] $end

$scope task print_dmem_contents $end
$var integer 32 c" i $end
$upscope $end
$upscope $end
$upscope $end
$upscope $end
$enddefinitions $end
#0
$dumpvars
0"
1#
b0 $
bx $"
bx ("
bx )"
bx *"
bx ;"
b0 <"
b0 ="
b0 >"
b0 ?"
x_"
x`"
xa"
xb"
b1010 !
bx c"
x<
x;
x:
x9
x8
x7
xL
xK
xJ
xI
xH
xG
xF
xE
xD
xC
xB
xA
x@
x?
x>
x=
xM
0S
0R
0Q
0P
0O
0N
x[
xZ
xY
xX
xW
xV
xU
xT
x\
x]
x^
x_
x`
xa
xb
xc
xd
xe
xf
xg
xh
xi
xj
xk
xl
xm
xn
xo
xp
xq
xr
xs
xt
xu
xv
xw
1x
xy
xz
x{
x|
x}
x~
x!!
x"!
x#!
x$!
x%!
x&!
x'!
x(!
x)!
x/!
x.!
x-!
x,!
x+!
x*!
x5!
x4!
x3!
x2!
x1!
x0!
x=!
x<!
x;!
x:!
x9!
x8!
x7!
x6!
xE!
xD!
xC!
xB!
xA!
x@!
x?!
x>!
xM!
xL!
xK!
xJ!
xI!
xH!
xG!
xF!
xU!
xT!
xS!
xR!
xQ!
xP!
xO!
xN!
x]!
x\!
x[!
xZ!
xY!
xX!
xW!
xV!
x^!
x_!
x`!
xa!
xb!
xc!
xd!
xe!
xm!
xl!
xk!
xj!
xi!
xh!
xg!
xf!
xu!
xt!
xs!
xr!
xq!
xp!
xo!
xn!
x}!
x|!
x{!
xz!
xy!
xx!
xw!
xv!
x#"
x""
x!"
x~!
x&"
x%"
x'"
x+"
x,"
x-"
x."
x4"
x3"
x2"
x1"
x0"
x/"
x:"
x9"
x8"
x7"
x6"
x5"
xG"
xF"
xE"
xD"
xC"
xB"
xA"
x@"
xP"
xO"
xN"
xM"
xL"
xK"
xJ"
xI"
xH"
xQ"
xR"
xS"
xT"
xU"
x]"
x\"
x["
xZ"
xY"
xX"
xW"
xV"
x^"
06
05
04
03
02
01
00
0/
0.
0-
0,
0+
0*
0)
0(
0'
1&
0%
$end
#5000
1"
1%
b100000 ;"
0_"
0`"
0a"
0b"
0<
0;
0:
09
08
17
0b!
0c!
0d!
0e!
0+"
1,"
1-"
1."
0L
0K
0J
0I
0H
0G
0F
0E
0D
0C
0B
0A
1@
1?
0>
0=
14"
03"
02"
01"
00"
1/"
0[
0Z
0Y
0X
1W
1V
0U
0T
05!
04!
03!
02!
01!
00!
0s
0t
0u
0v
0|
0{
0}
0y
0~
0z
0E!
0D!
0C!
0B!
0A!
0@!
0?!
0>!
1:"
09"
08"
07"
06"
15"
1/!
0.!
0-!
0,!
0+!
1*!
0U!
0T!
0S!
0R!
0Q!
0P!
0O!
0N!
0}!
0|!
0{!
0z!
0y!
0x!
0w!
0v!
0=!
0<!
0;!
0:!
09!
08!
07!
06!
0S"
0^"
0]"
0\"
0["
0Z"
0Y"
0X"
0W"
0V"
0G"
0F"
0E"
0D"
0C"
0B"
0A"
0@"
0U"
0R"
0a!
0]!
0\!
0[!
0Z!
0Y!
0X!
0W!
0V!
0^!
0u!
0t!
0s!
0r!
0q!
0p!
0o!
0n!
1_!
1m!
1l!
1k!
0j!
0i!
0h!
0g!
0f!
0J!
0I!
0H!
0G!
0F!
0'"
1#"
1""
0!"
0~!
0&"
0%"
b0 ("
b0 *"
b0 $"
b1000 $"
b0 )"
0l
0k
0n
0m
0j
0i
0h
0g
0f
0e
0d
0c
1b
0a
0\
0r
0q
0p
0o
0`
0_
0^
0]
0M
0"!
0'!
0(!
1&!
0%!
0$!
0)!
0T"
1!!
0w
0#!
0M!
0L!
0K!
0P"
0O"
0N"
0M"
0L"
0K"
0J"
0I"
0H"
0Q"
0`!
#10000
0"
0%
#15000
1"
1%
#20000
0#
0"
0&
0%
#25000
1"
1%
b100001 ;"
1<
1I
1B
1A
0@
0?
1=
04"
13"
0:"
19"
0/!
1.!
1Y
1X
0W
0V
1T
12!
1r!
1s
1t
1J!
17"
1}
1~
0#"
0""
1~!
b0 $"
b100000000 $"
1g
0b
1)!
1M!
1L!
1K!
0J!
#30000
0"
0%
#35000
1"
1%
b100010 ;"
b111 ?"
0<
1;
0I
0A
1@
1?
0=
14"
1:"
1/!
0X
1W
1V
0T
02!
0r!
0s
07"
0}
1#"
1""
0~!
b0 $"
b1000 $"
1b
0g
0)!
0M!
0L!
0K!
#40000
0"
0%
#45000
1"
1%
b100011 ;"
1<
1D
1C
0B
0?
1>
1=
04"
03"
12"
0:"
09"
18"
0/!
0.!
1-!
1[
1Z
0Y
0V
1U
1T
0t
1u
1v
0~
1'"
0""
1!"
1~!
1&"
1%"
b0 $"
b10000000000000 $"
1m
0b
0&!
1{
1|
1$!
1%!
1T"
1#!
0!!
1H"
1E!
1D!
1C!
1Q"
1`!
1U!
1T!
1S!
1}!
1|!
1{!
1G"
1D"
1C"
1B"
1A"
1@"
1P"
1M"
1L"
1K"
1J"
1I"
0H"
0Q"
1U"
0`!
1]!
1Z!
1Y!
1X!
1W!
1V!
1^!
1u!
1r!
1q!
1p!
1o!
1n!
0_!
0m!
0l!
0k!
1M!
1J!
1I!
1H!
1G!
1F!
#50000
0"
0%
#55000
1"
1%
b100100 ;"
1a"
0<
0;
1:
1d!
0-"
0."
1K
1J
1I
1?
14"
1:"
1/!
1V
14!
13!
12!
19"
08"
16"
1""
b0 $"
b1000000000000000 $"
0m
0{
0|
0$!
0%!
0T"
1R"
1a!
0#!
1F"
1E"
0D"
0C"
0B"
0A"
0@"
1O"
1N"
0M"
0L"
0K"
0J"
0I"
0E!
0D!
0C!
0U"
0a!
0R"
0U!
0T!
0S!
0}!
0|!
0{!
0]!
0Z!
0Y!
0X!
0W!
0V!
0^!
0u!
0r!
0q!
0p!
0o!
0n!
0G"
0F"
0E"
0P"
0O"
0N"
1_!
1m!
1l!
1k!
0M!
0J!
0I!
0H!
0G!
0F!
b1000 *"
1r
#60000
0"
0%
#65000
1"
1%
b100101 ;"
1<
0K
0J
0D
0C
1B
1A
0@
0?
0>
04"
13"
0:"
09"
18"
0/!
1.!
0[
0Z
1Y
1X
0W
0V
0U
04!
03!
1s
1t
0u
0v
19"
17"
06"
0'"
0#"
0""
0!"
0&"
0%"
b0 *"
b1 *"
b0 $"
b100000000 $"
1g
1o
0r
1&!
1)!
1!!
1~
1}
1M!
1L!
1K!
1r!
b0 *"
0o
#70000
0"
0%
#75000
1"
1%
b100110 ;"
0<
1;
0I
1?
1>
0=
14"
1:"
1/!
1V
1U
0T
02!
0r!
07"
1""
1!"
0~!
b0 $"
b1000000 $"
1e
0g
0&!
0)!
1$!
1%!
1T"
1#!
1z
1y
1H"
0M!
0L!
0K!
1Q"
1`!
1=!
1<!
1;!
1^"
1G"
1F"
1E"
1P"
1O"
1N"
1]"
1\"
1]!
1\!
1[!
1u!
1t!
1s!
0_!
0m!
0l!
0k!
1j!
1M!
1L!
1K!
#80000
0"
0%
#85000
1"
1%
b100111 ;"
1_"
0a"
1<
1b!
0d!
1-"
1."
1D
1C
0A
1@
0?
1=
04"
03"
02"
11"
0:"
09"
08"
17"
0/!
0.!
0-!
1,!
1[
1Z
0X
1W
0V
1T
0s
1u
1v
1|
1{
0}
0y
1E!
1D!
1C!
1U!
1T!
1S!
1}!
1|!
1{!
0=!
0<!
0;!
0^"
0]"
0\"
0F"
0E"
1D"
1C"
1B"
1A"
1@"
0O"
0N"
1M"
1L"
1K"
1J"
1I"
0H"
0Q"
1U"
0`!
0\!
0[!
1Z!
1Y!
1X!
1W!
1V!
1^!
0t!
0s!
1r!
1q!
1p!
1o!
1n!
0j!
0L!
0K!
1J!
1I!
1H!
1G!
1F!
1'"
1#"
0""
1~!
1&"
1%"
b0 $"
b10000000000000 $"
1m
0e
0!!
0~
#90000
0"
0%
#95000
1"
1%
b101000 ;"
0_"
1a"
0<
0;
0:
19
0b!
1d!
0-"
0."
1I
0B
1?
14"
1:"
1/!
0Y
1V
12!
0t
07"
16"
0z
1""
b0 $"
b1000000000000000 $"
0m
0{
0|
0$!
0%!
0T"
1R"
1a!
0#!
1F"
1E"
0D"
0C"
0B"
0A"
0@"
1O"
1N"
0M"
0L"
0K"
0J"
0I"
0E!
0D!
0C!
0U"
0a!
0R"
0U!
0T!
0S!
0}!
0|!
0{!
0]!
0Z!
0Y!
0X!
0W!
0V!
0^!
0u!
0r!
0q!
0p!
0o!
0n!
0G"
0F"
0E"
0P"
0O"
0N"
1_!
1m!
1l!
1k!
0M!
0J!
0I!
0H!
0G!
0F!
b1000 *"
1r
#100000
0"
0%
#105000
1"
1%
b101001 ;"
1<
0I
0C
1A
0?
0>
04"
13"
0:"
19"
0/!
1.!
0Z
1X
0V
0U
02!
1s
0u
17"
06"
0""
0!"
0%"
b0 *"
b10 *"
b0 $"
b1000000000 $"
1h
1p
0r
1"!
1)!
1#!
1!!
1}
1z
1w
1M!
1L!
1K!
b0 *"
0p
0w
#110000
0"
0%
